{
	"info": {
		"_postman_id": "5f1376a0-b3a0-4c64-8e02-ed028c833e8b",
		"name": "Dynamic",
		"schema": "https://schema.getpostman.com/json/collection/v2.1.0/collection.json"
	},
	"item": [
		{
			"name": "Reset Database",
			"request": {
				"method": "GET",
				"header": [],
				"url": {
					"raw": "localhost:8080/reset",
					"host": [
						"localhost"
					],
					"port": "8080",
					"path": [
						"reset"
					]
				},
				"description": " /reset\n    *GET route\n    *image: ResetDatabaseRoute\n    *it is used to delete all entries in the database\n    *used for development"
			},
			"response": []
		},
		{
			"name": "Register User",
			"request": {
				"method": "POST",
				"header": [],
				"url": {
					"raw": "localhost:8080/reset",
					"host": [
						"localhost"
					],
					"port": "8080",
					"path": [
						"reset"
					]
				},
				"description": " /register\n    *POST route\n    *used for user creation\n    *image: RegisterUserRoute\n    *POSTMAN body example:\n        {\n    \t\"username\":\"ovidiu@gmail.com\",\n    \t\"password\":\"pass3\"\n        }"
			},
			"response": []
		},
		{
			"name": "Login User",
			"request": {
				"method": "POST",
				"header": [
					{
						"key": "Content-Type",
						"name": "Content-Type",
						"value": "application/json",
						"type": "text"
					}
				],
				"body": {
					"mode": "raw",
					"raw": "{\n\t\"username\":\"radu@gmail.com\",\n\t\"password\":\"pass1\"\n}",
					"options": {
						"raw": {
							"language": "json"
						}
					}
				},
				"url": {
					"raw": "localhost:8080/login",
					"host": [
						"localhost"
					],
					"port": "8080",
					"path": [
						"login"
					]
				},
				"description": "/login\n    *POST route\n    *used for user authentication\n    *image: LoginRoute\n    *POSTMAN body example:\n        {\n    \t\"username\":\"ovidiu@gmail.com\",\n    \t\"password\":\"pass3\"\n        }"
			},
			"response": []
		},
		{
			"name": "Logout user",
			"request": {
				"method": "GET",
				"header": [],
				"url": {
					"raw": "localhost:8080/logout",
					"host": [
						"localhost"
					],
					"port": "8080",
					"path": [
						"logout"
					]
				},
				"description": "/logout\n    *GET route\n    *used for signing off the logged user\n    *image: LogoutRoute\n    *NO POSTMAN body required"
			},
			"response": []
		},
		{
			"name": "Display all users",
			"request": {
				"method": "GET",
				"header": [],
				"url": {
					"raw": "localhost:8080/users",
					"host": [
						"localhost"
					],
					"port": "8080",
					"path": [
						"users"
					]
				},
				"description": "/users\n    *GET route\n    *used for displaying all the created users\n    *used for debugging purposes\n    *image: GetUsersRoute\n    *NO POSTMAN body required"
			},
			"response": []
		},
		{
			"name": "Register a project",
			"request": {
				"method": "POST",
				"header": [
					{
						"key": "Content-Type",
						"name": "Content-Type",
						"value": "application/json",
						"type": "text"
					}
				],
				"body": {
					"mode": "raw",
					"raw": "{\n\t\"name\":\"dynamic\",\n\t\"repo_link\": \"dynamic@git.ro\",\n\t\"description\":\"Bug tracking project\",\n\t\"members\":\"cristi@gmail.com,teo@gmail.com\"\n}",
					"options": {
						"raw": {
							"language": "json"
						}
					}
				},
				"url": {
					"raw": "localhost:8080/projects",
					"host": [
						"localhost"
					],
					"port": "8080",
					"path": [
						"projects"
					]
				},
				"description": "/projects\n    *POST route\n    *used to register a project\n    *image: PostProjectCreationRoute\n    *POSTMAN body example:\n        {\n    \t\"name\":\"dynamic\",\n    \t\"repo_link\": \"dynamic@git.ro\",\n    \t\"description\":\"Bug tracking project\",\n    \t\"members\":\"cristi@gmail.com,teo@gmail.com\"\n        }"
			},
			"response": []
		},
		{
			"name": "Display projects",
			"request": {
				"method": "GET",
				"header": [],
				"url": {
					"raw": "localhost:8080/projects",
					"host": [
						"localhost"
					],
					"port": "8080",
					"path": [
						"projects"
					]
				},
				"description": "/projects\n    *GET route\n    *used for displaying all registered projects\n    *image: GetProjectsRoute\n    *NO POSTMAN body required"
			},
			"response": []
		},
		{
			"name": "Display team members",
			"request": {
				"method": "GET",
				"header": [],
				"url": {
					"raw": "localhost:8080/members",
					"host": [
						"localhost"
					],
					"port": "8080",
					"path": [
						"members"
					]
				},
				"description": "/members\n    *GET route\n    *used to display all registered project members\n    *used for debugging puropses\n    *image: GetProjectMemberRoute\n    *NO POSTMAN body required"
			},
			"response": []
		},
		{
			"name": "Register as a tester",
			"request": {
				"method": "POST",
				"header": [],
				"url": {
					"raw": "localhost:8080/projects/1",
					"host": [
						"localhost"
					],
					"port": "8080",
					"path": [
						"projects",
						"1"
					]
				},
				"description": "/projects/:id\n    *POST route\n    *used by a non PM member to register as a tester on a project identified by :id\n    *image: PostAddTesterRoute\n    *NO POSTMAN body required \n    *used with this route: /projects/1 (for projectId = 1)"
			},
			"response": []
		},
		{
			"name": "Add bug",
			"request": {
				"method": "POST",
				"header": [
					{
						"key": "Content-Type",
						"name": "Content-Type",
						"value": "application/json",
						"type": "text"
					}
				],
				"body": {
					"mode": "raw",
					"raw": "{\n        \t\"severity\":\"CRITICAL\",\n        \t\"priority\":\"HIGH\",\n        \t\"description\":\"Test description\",\n        \t\"issue_link\":\"issue@git.com\"\n}",
					"options": {
						"raw": {
							"language": "json"
						}
					}
				},
				"url": {
					"raw": "localhost:8080/projects/1/bugs",
					"host": [
						"localhost"
					],
					"port": "8080",
					"path": [
						"projects",
						"1",
						"bugs"
					]
				},
				"description": "/projects/:id/bugs\n    *POST route\n    *used by a tester to add a bug to the project identified by :id\n    *image: PostAddBugRoute\n    *used with this route: /projects/1/bugs\n    *POSTMAN body example:\n        {\n        \t\"severity\":\"CRITICAL\",\n        \t\"priority\":\"HIGH\",\n        \t\"description\":\"Test description\",\n        \t\"issue_link\":\"issue@git.com\"\n        }"
			},
			"response": []
		},
		{
			"name": "Display all bugs",
			"request": {
				"method": "GET",
				"header": [],
				"url": {
					"raw": "localhost:8080/bugs",
					"host": [
						"localhost"
					],
					"port": "8080",
					"path": [
						"bugs"
					]
				},
				"description": "/bugs\n    *GET route\n    *used for displaying all registered bugs\n    *used for debugging purposes\n    *image: GetBugsRoute\n    *NO POSTMAN body required"
			},
			"response": []
		},
		{
			"name": "Display all bugs for a DEV",
			"request": {
				"method": "GET",
				"header": [],
				"url": {
					"raw": "localhost:8080/projects/bugs",
					"host": [
						"localhost"
					],
					"port": "8080",
					"path": [
						"projects",
						"bugs"
					]
				},
				"description": "/projects/bugs\n    *GET route\n    *used for displaying all bugs of a logged DEV (all bugs for the projects he/she is PM)\n    *image: GetAllBugsForDevRoute\n    *NO POSTMAN body required"
			},
			"response": []
		},
		{
			"name": "Assign bug to DEV",
			"request": {
				"method": "PUT",
				"header": [],
				"url": {
					"raw": "localhost:8080/bugs/1",
					"host": [
						"localhost"
					],
					"port": "8080",
					"path": [
						"bugs",
						"1"
					]
				},
				"description": "/bugs/:id\n    *PUT route\n    *used by a DEV to assign itself a bug with id :id to resolve\n    *image: UpdateBugAllocatedtoDevRoute\n    *used with this route: /bugs/1\n    *NO POSTMAN body required"
			},
			"response": []
		},
		{
			"name": "Resolve bug",
			"request": {
				"method": "PUT",
				"header": [],
				"url": {
					"raw": "localhost:8080/bugs/1/solution",
					"host": [
						"localhost"
					],
					"port": "8080",
					"path": [
						"bugs",
						"1",
						"solution"
					]
				},
				"description": "/bugs/:id/solution\n    *PUT route\n    *used by the DEV who is assigned to the bug with id :id, to add a resolution\n    *image: UpdateResolvedBugRoute\n    *used with the route: /bugs/1/solution\n    *POSTMAN body example:\n        {\n        \t\"status\": \"solved\",\n        \t\"solved_link\":\"https://mygit.dynamic.com\"\n        }"
			},
			"response": []
		},
		{
			"name": "Delete user",
			"request": {
				"method": "DELETE",
				"header": [],
				"url": {
					"raw": "localhost:8080/users",
					"host": [
						"localhost"
					],
					"port": "8080",
					"path": [
						"users"
					]
				},
				"description": "/users\n    *DELETE route\n    *used to delete the currently logged user\n    *image: DeleteUserRoute\n    *NO POSTMAN body required"
			},
			"response": []
		},
		{
			"name": "Delete bug",
			"request": {
				"method": "DELETE",
				"header": [],
				"url": {
					"raw": "localhost:8080/bugs/1",
					"host": [
						"localhost"
					],
					"port": "8080",
					"path": [
						"bugs",
						"1"
					]
				},
				"description": "/bugs/:id\n    *DELETE route\n    *used by the PM who created the project to delete the bug with id :id\n    *image: DeleteBugRoute\n    *used with route: /bugs/1\n    *NO POSTMAN body required"
			},
			"response": []
		},
		{
			"name": "Delete project",
			"request": {
				"method": "DELETE",
				"header": [],
				"url": {
					"raw": "localhost:8080/projects/1",
					"host": [
						"localhost"
					],
					"port": "8080",
					"path": [
						"projects",
						"1"
					]
				},
				"description": "/projects/:id\n    *DELETE route\n    *used by the PM who created the project with :id to delete it\n    *image: DeleteProjectRoute\n    *used with route: /projects/1\n    *NO POSTMAN body required"
			},
			"response": []
		}
	],
	"protocolProfileBehavior": {}
}